{
	"requiredVariables": [
		"LAST_SELL_VALUE_BTC/USDT"
	],
	"rules": {
		"name": "Vender si sube 15%",
		"condition": {
			"type": "CALL",
			"name": ">",
			"arguments": [
				{
					"type": "CALL",
					"name": "*",
					"arguments": [
						{
							"type": "CONSTANT",
							"value": 1.15
						},
						{
							"type": "VARIABLE",
							"name": 1
						}
					]
				},
				{
					"type": "CALL",
					"name": "LAST",
					"arguments": {
						"type": "DATA",
						"symbol": "BTC/USDT",
						"from": 3600,
						"until": 0
					}
				}
			]
		},
		"action": [{
			"type": "SELL_MARKET",
			"symbol": "BTC/USDT",
			"amount": {
				"type": "CONSTANT",
				"value": 0.1
			}
		},
		{
			"type": "SET_VARIABLE",
			"name": "LAST_SELL_VALUE_BTC/USDT",
			"value": {
				"type": "CALL",
				"name": "LAST",
				"arguments": {
					"type": "DATA",
					"symbol": "BTC/USDT",
					"from": 3600,
					"until": 0
				}
			}
		}]
	}}
