{
	"name": "Comprar 12 TDDUSDT siempre",
	"condition": 
    {
      "type": "CONSTANT",
      "value": true
    },
  "action": [{
		"type": "BUY_MARKET",
		"symbol": "TDDUSDT",
		"amount": {
      "type": "CONSTANT",
      "value": 12
    }
  }]
}
